<svg xmlns="http://www.w3.org/2000/svg" width="6.953" height="12.407" viewBox="0 0 6.953 12.407">
  <path id="Tracé_76" data-name="Tracé 76" d="M276.374,7.4l5.143,5.143L286.659,7.4" transform="translate(-6.342 287.72) rotate(-90)" fill="none" stroke="#000" stroke-linecap="round" stroke-linejoin="round" stroke-width="1.5"/>
</svg>
